<?xml version="1.0" encoding="UTF-8" standalone="no"?>
<!-- Created with Inkscape (http://www.inkscape.org/) -->

<svg
   xmlns:dc="http://purl.org/dc/elements/1.1/"
   xmlns:cc="http://creativecommons.org/ns#"
   xmlns:rdf="http://www.w3.org/1999/02/22-rdf-syntax-ns#"
   xmlns:svg="http://www.w3.org/2000/svg"
   xmlns="http://www.w3.org/2000/svg"
   xmlns:xlink="http://www.w3.org/1999/xlink"
   xmlns:sodipodi="http://sodipodi.sourceforge.net/DTD/sodipodi-0.dtd"
   xmlns:inkscape="http://www.inkscape.org/namespaces/inkscape"
   width="13.229166mm"
   height="13.229166mm"
   viewBox="0 0 13.229166 13.229166"
   version="1.1"
   id="svg1863"
   inkscape:version="0.92.3 (2405546, 2018-03-11)"
   sodipodi:docname="demo2_e2_f3.svg">
  <defs
     id="defs1857">
    <clipPath
       id="clipPath1"
       clipPathUnits="userSpaceOnUse">
      <path
         id="path1866"
         d="M 0,0 H 236 V 141 H 0 Z"
         inkscape:connector-curvature="0" />
    </clipPath>
    <clipPath
       id="clipPath2"
       clipPathUnits="userSpaceOnUse">
      <path
         id="path1869"
         d="M 0,0 H 50 V 50 H 0 Z"
         inkscape:connector-curvature="0" />
    </clipPath>
  </defs>
  <sodipodi:namedview
     id="base"
     pagecolor="#ffffff"
     bordercolor="#666666"
     borderopacity="1.0"
     inkscape:pageopacity="0.0"
     inkscape:pageshadow="2"
     inkscape:zoom="0.7"
     inkscape:cx="38.392288"
     inkscape:cy="-15.150628"
     inkscape:document-units="mm"
     inkscape:current-layer="g1885"
     showgrid="false"
     inkscape:window-width="1920"
     inkscape:window-height="1025"
     inkscape:window-x="0"
     inkscape:window-y="27"
     inkscape:window-maximized="1" />
  <metadata
     id="metadata1860">
    <rdf:RDF>
      <cc:Work
         rdf:about="">
        <dc:format>image/svg+xml</dc:format>
        <dc:type
           rdf:resource="http://purl.org/dc/dcmitype/StillImage" />
        <dc:title></dc:title>
      </cc:Work>
    </rdf:RDF>
  </metadata>
  <g
     inkscape:label="Layer 1"
     inkscape:groupmode="layer"
     id="layer1"
     transform="translate(-71.739881,-119.44568)">
    <g
       style="font-style:normal;font-weight:normal;font-size:12px;font-family:Dialog;color-interpolation:auto;fill:#000000;fill-opacity:1;stroke:#000000;stroke-width:1;stroke-linecap:square;stroke-linejoin:miter;stroke-miterlimit:10;stroke-dasharray:none;stroke-dashoffset:0;stroke-opacity:1;color-rendering:auto;image-rendering:auto;shape-rendering:auto;text-rendering:auto"
       id="g1913"
       transform="matrix(0.26458333,0,0,0.26458333,47.398215,112.03735)">
      <g
         id="g1885">
        <defs
           id="defs1">
          <clipPath
             id="clipPath1899"
             clipPathUnits="userSpaceOnUse">
            <path
               id="path1897"
               d="M 0,0 H 236 V 141 H 0 Z"
               inkscape:connector-curvature="0" />
          </clipPath>
          <clipPath
             id="clipPath1903"
             clipPathUnits="userSpaceOnUse">
            <path
               id="path1901"
               d="M 0,0 H 50 V 50 H 0 Z"
               inkscape:connector-curvature="0" />
          </clipPath>
        </defs>
        <g
           id="g1883"
           style="color-interpolation:sRGB;fill:#000000;fill-opacity:0;stroke:#000000;stroke-opacity:0;color-rendering:optimizeSpeed;image-rendering:optimizeSpeed;shape-rendering:crispEdges;text-rendering:optimizeSpeed"
           transform="translate(92,28)">
          <image
             id="image1881"
             clip-path="url(#clipPath2)"
             preserveAspectRatio="none"
             height="50"
             xlink:href="data:image/png;base64,iVBORw0KGgoAAAANSUhEUgAAADIAAAAyCAIAAACRXR/mAAAAu0lEQVR42u3ZXRKA IAgEYI7ezeutH1NnkkW2Wg4Q3wSBk7ZeY5keay0sEdTBGYPpLjMSUyFDsvw9erBC O3f4ORZnGpO5WEU+LtaeFWUCFLGalau34B+jxc2eTBZ8d3lbHtjmGNY5PSkLXk0w a3ZvtV5MPqtTMrjvQRFbgmTW/JOgWH7W2IQMnFtBK8XFitt0f2JRtPxZQ8QKOt9p nIolllhiiSXWh1hU/+VJWW+4XOG9isqV9S7uqIKUtQHqBuJxaPIp9gAAAABJRU5E rkJggg=="
             width="50"
             y="0"
             x="0" />
        </g>
      </g>
    </g>
  </g>
</svg>
