<?xml version="1.0" encoding="UTF-8" standalone="no"?>
<!-- Created with Inkscape (http://www.inkscape.org/) -->

<svg
   xmlns:dc="http://purl.org/dc/elements/1.1/"
   xmlns:cc="http://creativecommons.org/ns#"
   xmlns:rdf="http://www.w3.org/1999/02/22-rdf-syntax-ns#"
   xmlns:svg="http://www.w3.org/2000/svg"
   xmlns="http://www.w3.org/2000/svg"
   xmlns:xlink="http://www.w3.org/1999/xlink"
   xmlns:sodipodi="http://sodipodi.sourceforge.net/DTD/sodipodi-0.dtd"
   xmlns:inkscape="http://www.inkscape.org/namespaces/inkscape"
   width="13.229166mm"
   height="13.229166mm"
   viewBox="0 0 13.229166 13.229166"
   version="1.1"
   id="svg3543"
   inkscape:version="0.92.3 (2405546, 2018-03-11)"
   sodipodi:docname="demo3a_e2_f7.svg">
  <defs
     id="defs3537">
    <clipPath
       id="clipPath1"
       clipPathUnits="userSpaceOnUse">
      <path
         id="path3546"
         d="M 0,0 H 236 V 141 H 0 Z"
         inkscape:connector-curvature="0" />
    </clipPath>
    <clipPath
       id="clipPath2"
       clipPathUnits="userSpaceOnUse">
      <path
         id="path3549"
         d="M 0,0 H 50 V 50 H 0 Z"
         inkscape:connector-curvature="0" />
    </clipPath>
  </defs>
  <sodipodi:namedview
     id="base"
     pagecolor="#ffffff"
     bordercolor="#666666"
     borderopacity="1.0"
     inkscape:pageopacity="0.0"
     inkscape:pageshadow="2"
     inkscape:zoom="1.4"
     inkscape:cx="-188.88017"
     inkscape:cy="-91.336425"
     inkscape:document-units="mm"
     inkscape:current-layer="g3565"
     showgrid="false"
     inkscape:window-width="1920"
     inkscape:window-height="1025"
     inkscape:window-x="0"
     inkscape:window-y="27"
     inkscape:window-maximized="1" />
  <metadata
     id="metadata3540">
    <rdf:RDF>
      <cc:Work
         rdf:about="">
        <dc:format>image/svg+xml</dc:format>
        <dc:type
           rdf:resource="http://purl.org/dc/dcmitype/StillImage" />
        <dc:title></dc:title>
      </cc:Work>
    </rdf:RDF>
  </metadata>
  <g
     inkscape:label="Layer 1"
     inkscape:groupmode="layer"
     id="layer1"
     transform="translate(-126.92441,-99.03497)">
    <g
       style="font-style:normal;font-weight:normal;font-size:12px;font-family:Dialog;color-interpolation:auto;fill:#000000;fill-opacity:1;stroke:#000000;stroke-width:1;stroke-linecap:square;stroke-linejoin:miter;stroke-miterlimit:10;stroke-dasharray:none;stroke-dashoffset:0;stroke-opacity:1;color-rendering:auto;image-rendering:auto;shape-rendering:auto;text-rendering:auto"
       id="g3593"
       transform="matrix(0.26458333,0,0,0.26458333,102.58274,91.626637)">
      <g
         id="g3565">
        <defs
           id="defs1">
          <clipPath
             id="clipPath3579"
             clipPathUnits="userSpaceOnUse">
            <path
               id="path3577"
               d="M 0,0 H 236 V 141 H 0 Z"
               inkscape:connector-curvature="0" />
          </clipPath>
          <clipPath
             id="clipPath3583"
             clipPathUnits="userSpaceOnUse">
            <path
               id="path3581"
               d="M 0,0 H 50 V 50 H 0 Z"
               inkscape:connector-curvature="0" />
          </clipPath>
        </defs>
        <g
           id="g3563"
           style="color-interpolation:sRGB;fill:#000000;fill-opacity:0;stroke:#000000;stroke-opacity:0;color-rendering:optimizeSpeed;image-rendering:optimizeSpeed;shape-rendering:crispEdges;text-rendering:optimizeSpeed"
           transform="translate(92,28)">
          <image
             id="image3561"
             clip-path="url(#clipPath2)"
             preserveAspectRatio="none"
             height="50"
             xlink:href="data:image/png;base64,iVBORw0KGgoAAAANSUhEUgAAADIAAAAyCAIAAACRXR/mAAABdklEQVR42t2Zaw4D IQiEPVqP1qPtzbZNTAwLAj4GNeuPpmlq9+uAMGq6n+OzfNy1kSjQd9OQcIkxrVer SpYK0//12jQKwAMr887/Ov27vXOZZgklVTVzhwXrwyrZkN/YTF1kg1hsndKc3Yal MdE6tzqI1XrGlrdWflZjtVTFmRrhYNlMUjMa0D1YlEBGc7KiOlgukOzx4VhGspcY FSDGF4hlS2V03/m22IRVLQSs/6/D0hwIU6t8KJtS4ErUQma42XCsPMH10zSOEMvV 0arZ44H5PmVs7EK/ActtQVTRRtM2giUruN2k6bJtYZJfdrA0N+ditahVniVbp4Vl mEyW78NdWZs7iKXFYiy1MVgRu0K2BfRTngYuDosp3VogMg2cie5UYfvE12JVE+sI tfCb/eOwounfiAU5BgvxW0GCAbAiyADuNIJsHIv6JHg0AVgRSQY4O10RROABOKR/ H39dwKz6eqD65cq5V1G7bu20w/N0HzkOxfoB6qs1uMYGGeQAAAAASUVORK5CYII="
             width="50"
             y="0"
             x="0" />
        </g>
      </g>
    </g>
  </g>
</svg>
