<?xml version="1.0" encoding="UTF-8" standalone="no"?>
<!-- Created with Inkscape (http://www.inkscape.org/) -->

<svg
   xmlns:dc="http://purl.org/dc/elements/1.1/"
   xmlns:cc="http://creativecommons.org/ns#"
   xmlns:rdf="http://www.w3.org/1999/02/22-rdf-syntax-ns#"
   xmlns:svg="http://www.w3.org/2000/svg"
   xmlns="http://www.w3.org/2000/svg"
   xmlns:xlink="http://www.w3.org/1999/xlink"
   xmlns:sodipodi="http://sodipodi.sourceforge.net/DTD/sodipodi-0.dtd"
   xmlns:inkscape="http://www.inkscape.org/namespaces/inkscape"
   width="13.229166mm"
   height="13.229166mm"
   viewBox="0 0 13.229166 13.229166"
   version="1.1"
   id="svg2913"
   inkscape:version="0.92.3 (2405546, 2018-03-11)"
   sodipodi:docname="demo3a_e2_f1.svg">
  <defs
     id="defs2907">
    <clipPath
       id="clipPath1"
       clipPathUnits="userSpaceOnUse">
      <path
         id="path2916"
         d="M 0,0 H 246 V 141 H 0 Z"
         inkscape:connector-curvature="0" />
    </clipPath>
    <clipPath
       id="clipPath2"
       clipPathUnits="userSpaceOnUse">
      <path
         id="path2919"
         d="M 0,0 H 50 V 50 H 0 Z"
         inkscape:connector-curvature="0" />
    </clipPath>
  </defs>
  <sodipodi:namedview
     id="base"
     pagecolor="#ffffff"
     bordercolor="#666666"
     borderopacity="1.0"
     inkscape:pageopacity="0.0"
     inkscape:pageshadow="2"
     inkscape:zoom="0.98994949"
     inkscape:cx="-33.855164"
     inkscape:cy="-51.244378"
     inkscape:document-units="mm"
     inkscape:current-layer="g2935"
     showgrid="false"
     inkscape:window-width="1920"
     inkscape:window-height="1025"
     inkscape:window-x="0"
     inkscape:window-y="27"
     inkscape:window-maximized="1" />
  <metadata
     id="metadata2910">
    <rdf:RDF>
      <cc:Work
         rdf:about="">
        <dc:format>image/svg+xml</dc:format>
        <dc:type
           rdf:resource="http://purl.org/dc/dcmitype/StillImage" />
        <dc:title></dc:title>
      </cc:Work>
    </rdf:RDF>
  </metadata>
  <g
     inkscape:label="Layer 1"
     inkscape:groupmode="layer"
     id="layer1"
     transform="translate(-123.9006,-90.719494)">
    <g
       style="font-style:normal;font-weight:normal;font-size:12px;font-family:Dialog;color-interpolation:auto;fill:#000000;fill-opacity:1;stroke:#000000;stroke-width:1;stroke-linecap:square;stroke-linejoin:miter;stroke-miterlimit:10;stroke-dasharray:none;stroke-dashoffset:0;stroke-opacity:1;color-rendering:auto;image-rendering:auto;shape-rendering:auto;text-rendering:auto"
       id="g2963"
       transform="matrix(0.26458333,0,0,0.26458333,98.236012,83.311161)">
      <g
         id="g2935">
        <defs
           id="defs1">
          <clipPath
             id="clipPath2949"
             clipPathUnits="userSpaceOnUse">
            <path
               id="path2947"
               d="M 0,0 H 246 V 141 H 0 Z"
               inkscape:connector-curvature="0" />
          </clipPath>
          <clipPath
             id="clipPath2953"
             clipPathUnits="userSpaceOnUse">
            <path
               id="path2951"
               d="M 0,0 H 50 V 50 H 0 Z"
               inkscape:connector-curvature="0" />
          </clipPath>
        </defs>
        <g
           id="g2933"
           style="color-interpolation:sRGB;fill:#000000;fill-opacity:0;stroke:#000000;stroke-opacity:0;color-rendering:optimizeSpeed;image-rendering:optimizeSpeed;shape-rendering:crispEdges;text-rendering:optimizeSpeed"
           transform="translate(97,28)">
          <image
             id="image2931"
             clip-path="url(#clipPath2)"
             preserveAspectRatio="none"
             height="50"
             xlink:href="data:image/png;base64,iVBORw0KGgoAAAANSUhEUgAAADIAAAAyCAIAAACRXR/mAAAV00lEQVR42s15d1RT Wde+f73v2BXSC5BGgASkKyAqWLCOjo0iLaEoMyMiCKTQiyC9J9hxig2wgKMjyIg4 Ooqi2BWQXgKEhJAGysy3b1DHGXWtb/3++K0v6+Guc0/OPee5ez97n33ItL/ef4Zk 6ns1d8/EFYt8+OKte/9/wId/aF/uxR+uPmiXjU/+9fFnGvxNTP5Vc7ezmpdZuXh9 HdPiujH7mjH7KoN1lcHWgfW+zfrCLft/MeDTW3YNg1VHNztn41IWHFd949XE5D9p Xb3TUeYRVsO2rbBdHr+Fx+EUbeOItnHEntzSHQGlHlwxtD24SANut3PF2zlir4BS dy7S6a7rhKs7t1Q37OAWf2T8jvcDpuaB8dDQDUOeRR7kiP39i2I3807aLr9sbPHT xsCq+lcfbDZteFQLdgJOh5d5rA48Sfa9hN5xZe6Oujne9fO9b6D9GjABN/V8b+h5 X0f7N2C49Wi/G9Cv79eA5jbM97mu53MDzWlA+dUTAxoWRv5uG1ZnF/47ZWfDfH94 Cmao1/e9gQloQPshswFQnAYMpx7lc2OuV91sj1/RvjXLgk8VuHoBs0P+MXdejryj db/m7rnF6y7aLXELODnX+zoq5DEmYhAVIdUPH0GHyzD75FjeKGafDBMh1bVHMBEj mHA5JnKqX4oJlxEiZbS4oZSLo7daVNW3u+ufKE80yPgVw645I9iIDzMgIwHYKDk2 CmnPD5fqhQ+hw3owwbeX7TxTZrWswnppxZFf5eN/AaadiS8GPaV/vRfvf2120HN0 pBwvHCcJxrGCCYxgXF+ggQYC4QRa+JbA1xpHy+lRI7TIEVrUKJY/jhFOwPhdJ1SP mro16je9/XKlSiuTKfolssZWVdZVrXUGzDOBfQ98nBYnGEcLtFMz42O1hJgRwncP ozdFXaSaFH6b/lKiAUw7FCisYbBD/PPQXr/N39mF4qsxQg0+ToNHmI1j3l0n8AKt Q8jzyK3Hq1aE3Fu67Y8dEUciyrYIH9GiZPRU7fnbY23P+5WKCalM2dYxeOfB67Y+ RUdHX9egmlumRPGRSd5Diw9TY3U9ZFhIOI7iq+btavXhllbSTIq2hr1sHwZME3vz fjW2COSW4ELuY3lyVIRKn6eGZ4gC5LWm5jKMGuW4n/zNcrmERh02pqk8tip/OKbM S+orSMtKuOiZ3l5f39PW3NnRMtDaMvDo1cDpc39UXrpfe/PFmUYFO30cwx/HCceJ 8RpcjHZqQmggiNWgBRp9vmZ+cJtHwNEKmmnxxm9ftQ4Apol3RNYxWEH+JWjOA2y0 FLdPi+FrUXyw8DjYDAsOjVB+u6HgNo3dSyRIyOQROkUdvkd95qQ0NU3ZcFWSGFUV lHT1SHXThd8eNzxpvNP6tGWos1v6uq2/uXUwsXoMr6OCj9d8TIso1AKArj5frQf+ 2dvvEXz837RqGSyuv1h/RzNRMIyPm/Kabi54WDDh6XX6Op3dakAeJJEAShOGZoWL IoEnP1YwlJc05ObyzMam2sH5Z0eXy7vDn91plgxrtBOTmonJl5KJDaXj8GKEeI1B iuqDnQgJakKcBgcmBG/ydAvt6/MMPvZPWt5RdcZsf3+Rns8fmGg5WJsco5maAjRu GdpydNG2ZgPyUxJJoqM1yqSrzE37TJlPTZg3mcyDDIvdeMIu/bl7MPMKtm570vR6 UD4pVUy29Cq/PzVMilcTEzSURBVJ955YoZacrPpgM1AYLlZLEmoJYZ9ayzv6GoPF 4ZSi/B6iwkfg5WAoXgecQOu3/cTvFHqzkdFTHSfAawODm0aG6Sh0GpVwcaPbL0Gc nG3rYhdapBGx1S6uvYKEnsNlrXXXTtV3OxaOERLVwMNwv5IcqyElqg0S1ESdMBCz wRLxGgA00GF9HkHHPufEABFu130kqSBhjJiaFKOl7xvKc/RrIBs0kQ2aSaTnOtwi kiIJhPildj+Gej3P5WnqT7T/ca359E93HG17KEYjJnSZJfvmJq91iQ8p6UogREkf IycBObVBssogUQ2+m3pzgzg14b3Z0Hv7PII/oQVODOYUY4Mf4MCJf0fyxIK9bWdM 7GpIBo0k0l0AmVxLMbriZH8t1Lvlh5zGu029zxsnn/9y+/fayjMXh08XaX85Ono8 fXyl82X370xTBqj7ldQDY4bAJkUFDWAGHgCFUMB4KSpo/5019vZ8htY1BpvjL0b5 3ifskxEE4wBIWqCGYE/RRYrxRSKxikg8iccXGeF/WGH3MJKjPJNXc6XKIfxkWEnT 0J3L0spCaXnBeNO5N+31b9p+G81NyArKpmTIaQfktLRRWooCOFGSVeBEozSlQaoS jPeBEJgNkdq+z2iLh2gLoXUP2VIEExC6hFjtot0vyixXVREIQOtHAj4Rh/qeOr94 tdXzxN3KS+KuhrMbveOcPQ5cP3LkVuqeF4fSuipEg78c6q8ovskP9Y2sombIaBkj 9Iwh2oFRhF+K3ChtDOGXPkaI0xJ1+YIIyktRfYHWDiQSuVwxOBEbrdOWcBwTM7Ey +OYZ9uKLRgYX1yyp8l2f68baa4KKZGHLNjnKLhTL63/0X+tGw+AXGZAXkXChq2xF IZ6lIb78TWtFazYtTHtiljfAzJYwMgdpGcMIOYSlwiBFCWyMklXURBUQMoxVT2W1 zztRJ3kxIaQRy5OB+3BIxhqn84bj1sTUbdoyfCJj4FDS8/iQExscoxyJpzYvkZ0r 0tw+de5AdOg6p+2L2M50o7U2lutsbdxtTU+E7RJFplrkdFnlDphmD7Py+00yJbRM KX2K3AEpNV1BhVBIVUEywwmnssY4LuKz2jIGbR3U3/EIGyklgrYgu8Qh+YYeMxib cn6kWqxu+LH7YNLjxO9rwrY1RPtJDifLKwtUdWXaK8deHs/O2uUXw/HZs279oTBu Z178vpgz1kVdCwr7TIv6THMHEH5ZEhpisBHaARnAIHGEnDSG5IsUFegMFsLzejx3 fi4SwVr4wHtI4aFzIpKLIWpS1Nap0uNHquR1Pylqj0nK0l/n8lr3721JCu3L5w+K E+Rn84fPFlyO2lVg53JizerW0tRX4d99k/LbgtJuy+LXliUd7OIes9wBVv4AM0+i M9gg/cCgUeoIJU1BSUNyB8IJQjL8S07kiDHcR6At/FTSAtULoOTQkhPVJqlSbmFz flH5T37ri5aa13qvfbDb+16Ie8tu7tP43a+z9rVn7Hual9BZmvrHvogi3++WZN22 OthpKeqwLmqxKmxhF3ezS3pN8/qNswfoWVIaEqEQmwok9SeoERPAiuE9nkGf2arZ QZwibNAdSKdQaRET1GBhJExi1aQ4FSlVzUwZ3rTnUqG5xVky/jaT0rnYtt3Z7uFi 28YtKyt3bMsPisyNOnAp8NvKlVt2rU9ZJLzjeaJ6xfEm60Ot1sUtCwragJZ5SQ+r oI+ZB8yGKJlSwwNy0n5YRUNKVpHjNKTobu/gw5/V1t8JAtnh4zWsTJXHUU3sFW3e weaf3WPuLv16yMJKxWJqzU01liytjbmGbaI0N7ltuYizIo6y7dZmvysn9qSGfXua Hdr5TXbNxtIbtkef2BQ9tRE9W1DcaV7QAZxY2ZLFaY98Yn/kxhxdL7hgsr+HmqY0 TFLhorq/4ESuGBP4gBQtd8qdSL48UfV4orHzbYfkTfegdqRL8jYtccLSDOHBNpGb MSXGtEEmvYNK6aNT1SzjZiuHlRtP7sgQPWhZf+rKT1axo0ZRGlPegHXxC7vDj20K n1kVt1mJ2tniXreMGznh3PJvF1WGLCrydg7m7lmS/AIKTGz4p7SQCoIV6F9sEvZQ eEHxoOeNUjv55u3kn5OTb99Ojk9MKlRvx9q7ZFs2dNONmoi4KhLxHIF4jkiA1P8H ifiKTKo2X2+16ZZjSHl5tfPx81zT8GdYrgznO8DY22uZ2m6V3M3e/9Iiq5WZ1euz J7U80Kxyp8VZL8uSNab5nk4+6Q2EGAU+qv2TSNRVED6+olXCpt9fjvWNAq23E28m P0Zbj+J6TmGh9dIoNz+/7TE7F7qX4vDnCLgLJMMcs83262r0vCT6Ht34bQ9x25v1 vFswnp1knx5akIy2c9QoSEEOHqbtkRKC+u03luR52Io82Gnr6DxngnjXdqf9rYZp SqKg+zMJQkdLvEr48MqDkZsvRtsGx8c0b8FOo5q3UNCB5S7dfPVdzk3H6HpWxmt2 ab+5oGGNA8/T/NsVdvspa67M2fIUOKE8+1Ce/QD97R0Yrz5CoIQYrCAFKadgEKzC c+SGO3s5W30y1tOilhBD7dDJURG0VDkxWU3gd38+b/lxxPa8h6LawQs322ubRx52 aeuahy783gkHN4niDb+i3+TAACNXbl7ci4RVQQfB79Zsp/LpS6tnb7w3f8szfY8u /e3tettaUJ69KI8e5NazC+XVrbf9JcqrF+3Vj/EewPnLUD4S862V8eutIxbjvnem bo05a7R/jJSiBFo+QYcrP5U8hysm7bq3UTyQd66p4nrrudv9ZRceHSgpr7r5+vw9 +YpSGSVHxsgbMckfNC3qNy/upn5/Z9biylnO52evvDb3mwdzNzXN2/wI+M3f+gIa SM/XjXPWNsxZcwMw/5sn87Y81XNvn7/1OW5TQ+gK6xB79M51yxamPqRkK4zSRz9v LXBioJ8INh8cb3hFwWDI0c7wnzpFv7SKzjWWXHq141APM3uUnjPCLEQ4AVglfYZh j2Y6X5jpcGrW0otzVt+Y+/XduZvuA+asuwW3c9yuz1pWPdPx9Ez748iYZVWzV1yd Am3Dqe9c2P4W80J9PS1TOompanKa8otODOCKMEEPIJ3iErRGKWrj/aOW6UNuBT2O uT3GGVJajoKeKzfOHXpPq58W92z++tpZTmdnOp6Z6XR2tuuV2cuvzna9PGtp1Uyn cuic5XBsrvNhQ/+LWPfqua7lsx2PzXI6OcPhFNNJ6G5t4GeN4oZEm+wfJKaoiMkq oOX9WSdyuSJscBNSQcRrcXEaQrIKnwzFkNIwfYyaAVDQs0fo+TKTKYMVD5gXtuN9 6sESwGnmwrKZDj8j/BxOIlhUpr+mjBFeZVVwy+5Ys7WoecGBZnZKEymkXn9jtb2D 5xoWeZMN3S26jF6ooGWNTNH6vLWC/IrRfo3IOTFWS0xC3gAAlSQpBTkgUDPH6Pmj xoXgR6lpiYRd0GksvDfPKfO/zNivzLKnW+TPsD003TxvhlXBdPOMOU5FC7Lr7U88 AtgdeQxXm9Ln1vkv2IWdJpltNpHlFr65lpwydlKrYSby2uT9yi9pi81BrHUHyxuF s8oUpykALaMDY9TsMWZal5V/qfW2JKLnWaJX5Vynwv8yov9D2f0fg9D/UPd+xRT+ l86fzkqZzkowCjxlX9aM0CpDaAGsxa0WRR2meb2M3GHT4kHjIjktV26QroD3J6Wq vkgLicQAMTakCR8jIybpaL03GDkVOSYw0uRCfpqXtclWO0eMTfJXsPwCMFLGV6bx 09lAJXn6gqwZltCTo7/6uFXRnSlOtgcf2xx5Znmw1ar4pUVxF6uoj5kvoWaOMPKk jHyZcb7UIE2hW0uN53V7fKnewobcxwtl745vCZopUxnsV0IDKvHkiHCOpb6nsxNp Q/UMhx9nWBfNsMrTIX8K0xfkzXESm/Bu2pc9sT3y1ObgM9tjTy0K2qwOtptC7ZA/ ABFjki9h5A6RU8cMoNjKGKNkjiFhmKBBh3d/4eTDKcUEQC0/ghIArX/4EYpu4wxZ RESMnxWKa8s2WnNhztf3Zi2pmGF3eIZ14Tta1vl6q44zIxusi1/ZiJ8DFYuS11al rWZIjdrDLuliFfdSs0bAVMz8QaMMxbvJ4bXTlV+UPNDy9y+Z73cHHT2K/cAp6W95 GaYrl0Rf8LHE7nUgLVyyd97Xt2evvgGJYIb9MeA0064I41nNTHmyoLBtgajTquCV hajLvKDdvLDLQtzFzO+jZw+bFvaDnQzTR6lZo+BBSqbs4zf/YiRCgsDsvIcDbcEO BQVQvBq8SUhSvzeYeg2/OsQOv9eZLFhrtdA1at7S8ukOZ2baiea6/WwYdd8kv8es uN+sqM9C1GOcIzEXd7CKe6iZUtipGLmD9JxhSgZsEkOGaaMkOCemKalZCrIuY+ES lOhYFYH3pUjUSR4nlIGnMQItJlb1Lz9uib24dxk1zAmfvZGR72Httc6P4lqC9q6j pHZAJoMl4WqcP2hW2M8skACJBQfbKXBOzB42KZLQc4fJ+8doOZD2JO9knowEIPgB n6jSF6pQYb2f1lu646tO8pAg9Pkafb4aH6eZ8uOU9okpapeEu9Eb7AJt0JkbjE8H WVUGmoUEhzNSeuk5UvAOLUuK0MobNM6XmBQO0LOlzLxBAKibljNCz5WCkUipkGjk sAmSUv6mBQ1gphfW7f7vf434CesYrF3++eiA2/MiZSiBBpfwTljwADYWoUVIVpsl 9wZ4+3qw5n5vj4lfyyjazOB+n0ZPHaJDtOdJ3/kofRRAzx0Bk4B6mIVDYCQjOFJn SylZiimZggeNMsbAd5h4JSHpnfDxvH6foCOVNJPiLXtevR4CTDsUmQd5K2VzJOG7 xjlhEgxkeZ2dsDEaPb4KHat858pElXPoabely1ZZszY7Wm7Z7G8aeR+OCZD9YRko TiAPUTLlwA92dFo2sqVMWREahpD58qQw5kMMwRUdp5wnGMMmKPGJalJM/1735Aqq iSggrrVPAZh2/ue68/YrT9uvcA2/hApvx4MAk1SYGOR/h9i4d5LHxkMQaAyS5FT+ M2pAJSO0hpIG66lhAXAKrIrktuwRShbUdCqjTAUtGwk0EJNhxti7fSxd+bFYpwDM 5vDG5kfLnSP/ENm5HbdwrBBXjGonAdMaXwwc9Yu+bGyRv9zHNepXUnQHmi/VE6j1 eGOYWDUufhwXq0ALxnBxMkKiAhcjxQqlhFQNqA0fLyckK8FgxMRhQtIoCBxMBZ26 85YCHw96kgMt2GTwcTBAATUMPmEUJQCdIMOQ23g1ij+yKLoxdSXnDAhr2+7fH/e9 +7lg4u3kuSuPTqz1q2YuOOywfo9f/MrQCy4RV132/eoiqEPAr3UNu+zCq3EV1Lrw r7rwa1YLajZAQ1C7XFizjn91Le9XF2Ht8pia5TG1LoIat5irG+Fb6BHUrED6a135 V12Fta7CazDDMl7NMmSqGrjdHHl5l3duid3q03TTQ67bys83at/++fdvPuNv/6y8 3HzQPazCwukC1bjCiFlBNS2nm8G1gmICKKeZIbe69hTOGjHPQsOIVklhnP5oJDKY YgI95QzWeQoDBnz81L9wxohZSWH+zLIv3hxy9vzd8Td//uOnKPioJyZvPe0/XVxR 6B8jWhd02M33Xzjk5ide7f/htnSVD0CkuwL+MXIVHFfe9Yj++dXHgNny1wUW+vEr Cs7eau5RTUz++4e7v39SVL192aNoedX3+kXXv9D2orvlRfen/f/PgNlgoZc9clj0 r08+/0dp/Q+9SFY4npdaCwAAAABJRU5ErkJggg=="
             width="50"
             y="0"
             x="0" />
        </g>
      </g>
    </g>
  </g>
</svg>
