<?xml version="1.0" encoding="UTF-8" standalone="no"?>
<!-- Created with Inkscape (http://www.inkscape.org/) -->

<svg
   xmlns:dc="http://purl.org/dc/elements/1.1/"
   xmlns:cc="http://creativecommons.org/ns#"
   xmlns:rdf="http://www.w3.org/1999/02/22-rdf-syntax-ns#"
   xmlns:svg="http://www.w3.org/2000/svg"
   xmlns="http://www.w3.org/2000/svg"
   xmlns:xlink="http://www.w3.org/1999/xlink"
   xmlns:sodipodi="http://sodipodi.sourceforge.net/DTD/sodipodi-0.dtd"
   xmlns:inkscape="http://www.inkscape.org/namespaces/inkscape"
   width="13.229166mm"
   height="13.229166mm"
   viewBox="0 0 13.229166 13.229166"
   version="1.1"
   id="svg3963"
   inkscape:version="0.92.3 (2405546, 2018-03-11)"
   sodipodi:docname="demo3b_e2_f2.svg">
  <defs
     id="defs3957">
    <clipPath
       id="clipPath1"
       clipPathUnits="userSpaceOnUse">
      <path
         id="path3966"
         d="M 0,0 H 246 V 141 H 0 Z"
         inkscape:connector-curvature="0" />
    </clipPath>
    <clipPath
       id="clipPath2"
       clipPathUnits="userSpaceOnUse">
      <path
         id="path3969"
         d="M 0,0 H 50 V 50 H 0 Z"
         inkscape:connector-curvature="0" />
    </clipPath>
  </defs>
  <sodipodi:namedview
     id="base"
     pagecolor="#ffffff"
     bordercolor="#666666"
     borderopacity="1.0"
     inkscape:pageopacity="0.0"
     inkscape:pageshadow="2"
     inkscape:zoom="1.4"
     inkscape:cx="23.160548"
     inkscape:cy="-22.425573"
     inkscape:document-units="mm"
     inkscape:current-layer="g3985"
     showgrid="false"
     inkscape:window-width="1920"
     inkscape:window-height="1025"
     inkscape:window-x="0"
     inkscape:window-y="27"
     inkscape:window-maximized="1" />
  <metadata
     id="metadata3960">
    <rdf:RDF>
      <cc:Work
         rdf:about="">
        <dc:format>image/svg+xml</dc:format>
        <dc:type
           rdf:resource="http://purl.org/dc/dcmitype/StillImage" />
        <dc:title></dc:title>
      </cc:Work>
    </rdf:RDF>
  </metadata>
  <g
     inkscape:label="Layer 1"
     inkscape:groupmode="layer"
     id="layer1"
     transform="translate(-101.97798,-105.83854)">
    <g
       style="font-style:normal;font-weight:normal;font-size:12px;font-family:Dialog;color-interpolation:auto;fill:#000000;fill-opacity:1;stroke:#000000;stroke-width:1;stroke-linecap:square;stroke-linejoin:miter;stroke-miterlimit:10;stroke-dasharray:none;stroke-dashoffset:0;stroke-opacity:1;color-rendering:auto;image-rendering:auto;shape-rendering:auto;text-rendering:auto"
       id="g4013"
       transform="matrix(0.26458333,0,0,0.26458333,76.313393,98.430209)">
      <g
         id="g3985">
        <defs
           id="defs1">
          <clipPath
             id="clipPath3999"
             clipPathUnits="userSpaceOnUse">
            <path
               id="path3997"
               d="M 0,0 H 246 V 141 H 0 Z"
               inkscape:connector-curvature="0" />
          </clipPath>
          <clipPath
             id="clipPath4003"
             clipPathUnits="userSpaceOnUse">
            <path
               id="path4001"
               d="M 0,0 H 50 V 50 H 0 Z"
               inkscape:connector-curvature="0" />
          </clipPath>
        </defs>
        <g
           id="g3983"
           style="color-interpolation:sRGB;fill:#000000;fill-opacity:0;stroke:#000000;stroke-opacity:0;color-rendering:optimizeSpeed;image-rendering:optimizeSpeed;shape-rendering:crispEdges;text-rendering:optimizeSpeed"
           transform="translate(97,28)">
          <image
             id="image3981"
             clip-path="url(#clipPath2)"
             preserveAspectRatio="none"
             height="50"
             xlink:href="data:image/png;base64,iVBORw0KGgoAAAANSUhEUgAAADIAAAAyCAIAAACRXR/mAAAAxElEQVR42u3ZQQqA MAwEwL7QZ/g7nyR48R8eFAm17aHdmBUXcs9g1hRt2tbd1jQvL1cGOCsFghq4xGB6 yhKJKZMhWZCMXizX5AaziqY+2RAr68fFuruiTIAhFrtyZQv4MrqwrCySBT+7RiMP jDmGZduTsuDTBLPezlbtwcSz/EY2NMQawkPmtU7FImF1b0ivveV0pAyx/E66P7Eo Im81RKziR4T2llhiiSWWWGKJZVhU/+VJWV+4XOG9ioqVtS7uqIqUdQDzylSiuht5 dQAAAABJRU5ErkJggg=="
             width="50"
             y="0"
             x="0" />
        </g>
      </g>
    </g>
  </g>
</svg>
